<?xml version="1.0" encoding="UTF-8"?>
<svg width="23px" height="23px" viewBox="0 0 23 23" version="1.1" xmlns="http://www.w3.org/2000/svg" xmlns:xlink="http://www.w3.org/1999/xlink">
    <!-- Generator: Sketch 51 (57462) - http://www.bohemiancoding.com/sketch -->
    <title>ios-pricetag-outline</title>
    <desc>Created with Sketch.</desc>
    <defs></defs>
    <g id="Symbols" stroke="none" stroke-width="1" fill="none" fill-rule="evenodd">
        <g id="ico-catalogo" fill="#333333" fill-rule="nonzero">
            <path d="M18.5769231,6.19230769 C19.55,6.19230769 20.3461538,5.39615385 20.3461538,4.42307692 C20.3461538,3.45 19.55,2.65384615 18.5769231,2.65384615 C17.6038462,2.65384615 16.8076923,3.45 16.8076923,4.42307692 C16.8076923,5.39615385 17.6038462,6.19230769 18.5769231,6.19230769 Z M18.5769231,3.53846154 C19.0634615,3.53846154 19.4615385,3.93653846 19.4615385,4.42307692 C19.4615385,4.90961538 19.0634615,5.30769231 18.5769231,5.30769231 C18.0903846,5.30769231 17.6923077,4.90961538 17.6923077,4.42307692 C17.6923077,3.93653846 18.0903846,3.53846154 18.5769231,3.53846154 Z M22.1153846,0.884615385 L22.1153846,8.11081731 L8.47572115,21.7504808 L1.24951923,14.5242788 L14.8891827,0.884615385 L22.1153846,0.884615385 Z M23,0 L14.5242788,0 L0,14.5242788 L8.47572115,23 L23,8.47572115 L23,0 Z" id="ios-pricetag-outline"></path>
        </g>
    </g>
</svg>